Date,x1,x2,x3,x4,x5,x6,x7,x8,x9,x10,x11,y
2023-01-16-17:19:48,0.353634841291932,0,0,0.30126947631943,0,0,0.761676479253219,0,0.26979327807785,0,0,0.956362802601598
2023-01-16-17:19:49,0.309315006947145,0,0,0.269625489774626,0,0,0.349946154095232,0,0.408456025121268,0,0,0.621918470143757
2023-01-16-17:19:50,0.197942983289249,0,0,0.718471367325401,0,0,0.581499431584962,0,0.329417683684733,0,0,1.02244722097062
2023-01-16-17:19:50,0.790284180210438,0,0,0.692533522605663,0,0,0.206827241252176,0,0.380919157585595,0,0,2.41656539583487
2023-01-16-17:19:51,0.710594456730178,0,0,0.133332157565746,0,0,0.481251777580474,0,0.572343181696488,0,0,1.6538984268232
2023-01-16-17:19:52,0.221506010444136,0,0,0.10255033170688,0,0,0.198659971274901,0,0.723779206513427,0,0,-0.245961524862983
2023-01-16-17:19:53,0.15750351062743,0,0,0.661436867038719,0,0,0.235576739785029,0,0.798776161228307,0,0,0.0825764984601606
2023-01-16-17:19:54,0.672380203031935,0,0,0.6329960228235,0,0,0.45079339199001,0,0.848839259479428,0,0,1.3906144350333
2023-01-16-17:19:55,0.577105466864305,0,0,0.331387050438207,0,0,0.261836518190103,0,0.507317201606929,0,0,1.30957743542598
2023-01-16-17:19:56,0.556275435280986,0,0,0.810708519362379,0,0,0.833045308053261,0,0.616995398164727,0,0,1.28555301855518
2023-01-16-17:19:57,0.255691241711611,0,0,0.828559497598326,0,0,0.386739860277157,0,0.0349752424634062,0,0,1.79811064555794
